…
That was cool, but now we have theis weird listcol *xy* and we would prefer to just have long data. Try tidyr::unnest...

``` r
ind_dat <- tibble::tibble(
  ID = 1:20,
  Npts = round(runif(length(ID), 3, 22))
  ) %>%
  group_by(ID) %>%
  do(xy = build_xy(.$Npts, center_x = -115, noise_x = 100, center_y = 45, noise_y = 50)) %>%
  unnest

ind_dat
```

    ## # A tibble: 243 x 3
    ##       ID          x           y
    ##    <int>      <dbl>       <dbl>
    ##  1     1 -118.14535  16.8945095
    ##  2     1  -45.31896  -1.6917813
    ##  3     1  -43.77496  -0.7425934
    ##  4     1 -211.97527  34.9252815
    ##  5     1  -68.17588 -35.2749158
    ##  6     1   51.13305  68.5298571
    ##  7     1 -156.64710  70.0322808
    ##  8     1  -54.52092 -31.1634750
    ##  9     1 -297.81000  50.9903923
    ## 10     1 -194.92276  46.7242968
    ## # ... with 233 more rows
…
ind_dat
```

    ## # A tibble: 241 x 5
    ##       ID  x_center y_center          x           y
    ##    <int>     <dbl>    <dbl>      <dbl>       <dbl>
    ##  1     1 -116.5649 44.91363   33.26890 114.1238802
    ##  2     1 -116.5649 44.91363 -148.22607 112.6150303
    ##  3     1 -116.5649 44.91363 -186.79500  -7.0955884
    ##  4     1 -116.5649 44.91363 -148.38656 101.3514759
    ##  5     1 -116.5649 44.91363 -148.96445  49.3438917
    ##  6     1 -116.5649 44.91363 -131.32075 144.0934359
    ##  7     1 -116.5649 44.91363 -228.89789  59.9005621
    ##  8     1 -116.5649 44.91363  -82.64087 -26.8848754
    ##  9     1 -116.5649 44.91363   17.56623  -0.6078249
    ## 10     1 -116.5649 44.91363 -172.32190  14.7650661
    ## # ... with 231 more rows
…
