…
-   Change all the values of Status to 2 where Sex is Male using group\_by and mutate

``` r
x %>%
  group_by(ID) %>%
  mutate(
    Status = Status + as.integer(Sex == "M")  
  )
```

    ## # A tibble: 25 x 4
    ## # Groups:   ID [5]
    ##       ID   Sex Status  Year
    ##    <chr> <chr>  <dbl> <int>
    ##  1     a     F      1  2011
    ##  2     a     F      1  2012
    ##  3     a     F      1  2013
    ##  4     a     F      1  2014
    ##  5     a     F      1  2015
    ##  6     b     M      2  2011
    ##  7     b     M      2  2012
    ##  8     b     M      2  2013
    ##  9     b     M      2  2014
    ## 10     b     M      2  2015
    ## # ... with 15 more rows
…
ind_dat
```

    ## # A tibble: 1,654 x 3
    ##       ID         x        y
    ##    <int>     <dbl>    <dbl>
    ##  1     1 -115.4777 42.03553
    ##  2     1 -111.9164 43.93154
    ##  3     1 -112.5564 44.36085
    ##  4     1 -117.3199 46.90158
    ##  5     1 -118.6723 43.25911
    ##  6     1 -115.1093 46.76888
    ##  7     1 -115.8791 40.40457
    ##  8     1 -113.2743 45.61172
    ##  9     1 -114.0338 41.59724
    ## 10     1 -115.2000 46.54470
    ## # ... with 1,644 more rows
…
ind_dat
```

    ## # A tibble: 1,468 x 5
    ##       ID  x_center y_center         x        y
    ##    <int>     <dbl>    <dbl>     <dbl>    <dbl>
    ##  1     1 -117.5834 47.93237 -122.4227 53.16802
    ##  2     1 -117.5834 47.93237 -118.6742 46.55266
    ##  3     1 -117.5834 47.93237 -116.5996 44.46760
    ##  4     1 -117.5834 47.93237 -117.9384 47.13311
    ##  5     1 -117.5834 47.93237 -116.6116 52.62728
    ##  6     1 -117.5834 47.93237 -116.9365 46.69175
    ##  7     1 -117.5834 47.93237 -119.8742 48.35991
    ##  8     1 -117.5834 47.93237 -117.9441 47.37836
    ##  9     1 -117.5834 47.93237 -116.6288 45.37950
    ## 10     1 -117.5834 47.93237 -115.7025 49.14542
    ## # ... with 1,458 more rows
…
