…
ind_dat
```

    ## # A tibble: 1,434 x 3
    ##       ID         x        y
    ##    <int>     <dbl>    <dbl>
    ##  1     1 -115.4537 46.30729
    ##  2     1 -115.5303 45.32653
    ##  3     1 -113.6948 44.43729
    ##  4     1 -114.2283 45.06132
    ##  5     1 -113.5227 42.77924
    ##  6     1 -115.3828 47.11828
    ##  7     1 -115.8664 48.59982
    ##  8     1 -115.9153 47.89935
    ##  9     1 -115.2163 41.96896
    ## 10     1 -113.9141 45.14666
    ## # ... with 1,424 more rows
…
ind_dat
```

    ## # A tibble: 1,536 x 5
    ##       ID  x_center y_center         x        y
    ##    <int>     <dbl>    <dbl>     <dbl>    <dbl>
    ##  1     1 -119.3172 42.18303 -118.3307 39.22451
    ##  2     1 -119.3172 42.18303 -119.9235 41.08213
    ##  3     1 -119.3172 42.18303 -118.9663 42.09813
    ##  4     1 -119.3172 42.18303 -120.1149 36.94780
    ##  5     1 -119.3172 42.18303 -121.9026 40.41874
    ##  6     1 -119.3172 42.18303 -119.4429 43.05415
    ##  7     1 -119.3172 42.18303 -119.8665 40.14204
    ##  8     1 -119.3172 42.18303 -121.4396 37.79522
    ##  9     1 -119.3172 42.18303 -118.5256 42.68705
    ## 10     1 -119.3172 42.18303 -117.7465 41.08479
    ## # ... with 1,526 more rows
…
